ooacquire 0.1.1.9002 Algorithms
…
## [1] "LED_lamp04_long.raw_spct" "LED_lamp04_long.spct"    
## [3] "dirpath"                  "oldLC"

We first print and plot the irradiance spectrum as read from the file.

LED_lamp04_long.spct

## Object: source_spct [1,421 x 2]
## Wavelength range 251.16 to 898.81 nm, step 0.43 to 0.48 nm 
## Label: LED_lamp04_long 
## Measured on 2017-04-12 16:34:00 UTC 
## Time unit 1s
## 
## # A tibble: 1,421 × 2
##    w.length     s.e.irrad
## *     <dbl>         <dbl>
## 1    251.16 -4.840817e-05
## 2    251.63 -3.784879e-05
## 3    252.10 -3.940292e-04
## 4    252.58  9.165484e-05
## 5    253.05  4.335889e-06
## 6    253.53 -2.272898e-05
## 7    254.00  1.366338e-04
## 8    254.48  2.278886e-05
## 9    254.95  1.589077e-05
## 10   255.43 -2.244188e-04
## # ... with 1,411 more rows
…
LED_lamp04_long.raw_spct

## Object: raw_mspct [2 x 1]
## --- Member: light ---
## Object: raw_spct [2,068 x 4]
## Wavelength range 187.82 to 1117.14 nm, step 0.41 to 0.48 nm 
## Label: LED_lamp04_long 
## Measured on 2017-04-12 16:34:00 UTC 
## Data acquired with 'MayaPro2000' s.n. MAYP11278
## grating 'HC1', slit '010s'
## integ. time (s): 1.52, 6, 7.06
## total time (s): 120, 120, 120
## counts @ peak (% of max): 94.2
## 
## # A tibble: 2,068 × 4
##    w.length counts_1 counts_2  counts_3
##       <dbl>    <dbl>    <dbl>     <dbl>
## 1    187.82 2301.291  2300.35  2300.765
## 2    188.30 2217.962  2217.80  2218.706
## 3    188.78 2189.101  2189.10  2189.765
## 4    189.26 2189.772  2190.50  2190.294
## 5    189.73 4147.063  9861.40 11354.706
## 6    190.21 4340.177 10680.55 12304.294
## 7    190.69 4322.215 10632.05 12229.353
## 8    191.17 4397.886 10945.40 12610.824
## 9    191.64 4497.089 11321.85 13031.706
## 10   192.12 4368.380 10820.90 12478.353
## # ... with 2,058 more rows
## --- Member: dark ---
## Object: raw_spct [2,068 x 4]
## Wavelength range 187.82 to 1117.14 nm, step 0.41 to 0.48 nm 
## Label: LED_lamp04_long 
## Measured on 2017-04-12 16:40:24 UTC 
## Data acquired with 'MayaPro2000' s.n. MAYP11278
## grating 'HC1', slit '010s'
## integ. time (s): 1.52, 6, 7.06
## total time (s): 120, 120, 120
## counts @ peak (% of max): 94.2
## 
## # A tibble: 2,068 × 4
##    w.length counts_1 counts_2  counts_3
##       <dbl>    <dbl>    <dbl>     <dbl>
## 1    187.82 2301.519  2303.60  2303.412
## 2    188.30 2218.430  2218.80  2218.353
## 3    188.78 2189.481  2188.70  2191.412
## 4    189.26 2190.848  2189.95  2191.235
## 5    189.73 4228.076 10177.50 11685.941
## 6    190.21 4426.608 11018.60 12648.471
## 7    190.69 4403.481 10929.25 12563.588
## 8    191.17 4472.797 11229.10 12905.647
## 9    191.64 4585.354 11617.70 13398.941
## 10   192.12 4445.000 11110.90 12798.706
## # ... with 2,058 more rows
## 
## --- END ---
…
We first print and plot the irradiance spectrum as read from the file.

Halogen.spct

## Object: source_spct [1,421 x 2]
## Wavelength range 251.16 to 898.81 nm, step 0.43 to 0.48 nm 
## Label: Halogen 
## Measured on 2017-03-28 11:24:35 UTC 
## Time unit 1s
## 
## # A tibble: 1,421 × 2
##    w.length    s.e.irrad
## *     <dbl>        <dbl>
## 1    251.16 0.0002660290
## 2    251.63 0.0011004515
## 3    252.10 0.0000478481
## 4    252.58 0.0003799574
## 5    253.05 0.0003379683
## 6    253.53 0.0005571774
## 7    254.00 0.0011422229
## 8    254.48 0.0011303313
## 9    254.95 0.0001980943
## 10   255.43 0.0006559003
## # ... with 1,411 more rows
…
Halogen.raw_spct

## Object: raw_mspct [3 x 1]
## --- Member: light ---
## Object: raw_spct [2,068 x 3]
## Wavelength range 187.82 to 1117.14 nm, step 0.41 to 0.48 nm 
## Label: Halogen 
## Measured on 2017-03-28 11:24:35 UTC 
## Data acquired with 'MayaPro2000' s.n. MAYP11278
## grating 'HC1', slit '010s'
## integ. time (s): 1.86, 7.2
## total time (s): 5.58, 7.2
## counts @ peak (% of max): 94.4
## 
## # A tibble: 2,068 × 3
##    w.length counts_1 counts_2
##       <dbl>    <dbl>    <dbl>
## 1    187.82 2288.333     2285
## 2    188.30 2210.000     2211
## 3    188.78 2182.333     2180
## 4    189.26 2181.667     2184
## 5    189.73 3865.000     8578
## 6    190.21 4119.667     9494
## 7    190.69 4114.000     9675
## 8    191.17 4178.667     9918
## 9    191.64 4310.000    10366
## 10   192.12 4189.667     9875
## # ... with 2,058 more rows
## --- Member: filter ---
## Object: raw_spct [2,068 x 3]
## Wavelength range 187.82 to 1117.14 nm, step 0.41 to 0.48 nm 
## Label: Halogen 
## Measured on 2017-03-28 11:25:54 UTC 
## Data acquired with 'MayaPro2000' s.n. MAYP11278
## grating 'HC1', slit '010s'
## integ. time (s): 1.86, 7.2
## total time (s): 5.58, 7.2
## counts @ peak (% of max): 94.4
## 
## # A tibble: 2,068 × 3
##    w.length counts_1 counts_2
##       <dbl>    <dbl>    <dbl>
## 1    187.82 2290.333     2290
## 2    188.30 2212.333     2213
## 3    188.78 2183.333     2182
## 4    189.26 2181.333     2186
## 5    189.73 3924.667     8693
## 6    190.21 4178.333     9735
## 7    190.69 4188.333     9861
## 8    191.17 4262.000    10140
## 9    191.64 4397.333    10548
## 10   192.12 4229.333    10135
## # ... with 2,058 more rows
## --- Member: dark ---
## Object: raw_spct [2,068 x 3]
## Wavelength range 187.82 to 1117.14 nm, step 0.41 to 0.48 nm 
## Label: Halogen 
## Measured on 2017-03-28 11:26:36 UTC 
## Data acquired with 'MayaPro2000' s.n. MAYP11278
## grating 'HC1', slit '010s'
## integ. time (s): 1.86, 7.2
## total time (s): 5.58, 7.2
## counts @ peak (% of max): 94.4
## 
## # A tibble: 2,068 × 3
##    w.length counts_1 counts_2
##       <dbl>    <dbl>    <dbl>
## 1    187.82 2287.667     2290
## 2    188.30 2211.667     2209
## 3    188.78 2182.667     2185
## 4    189.26 2182.667     2183
## 5    189.73 3816.000     8408
## 6    190.21 4053.667     9346
## 7    190.69 4000.333     9231
## 8    191.17 4062.000     9404
## 9    191.64 4179.667     9863
## 10   192.12 4053.000     9350
## # ... with 2,058 more rows
## 
## --- END ---
…
## Object: cps_mspct [3 x 1]
## --- Member: light ---
## Object: cps_spct [2,068 x 2]
## Wavelength range 187.82 to 1117.14 nm, step 0.41 to 0.48 nm 
## Label: Halogen 
## Measured on 2017-03-28 11:24:35 UTC 
## Data acquired with 'MayaPro2000' s.n. MAYP11278
## grating 'HC1', slit '010s'
## integ. time (s): 1.86, 7.2
## total time (s): 5.58, 7.2
## counts @ peak (% of max): 94.4
## 
## # A tibble: 2,068 × 2
##    w.length          cps
##       <dbl>        <dbl>
## 1    187.82   10.6009359
## 2    188.30    0.3464329
## 3    188.78   -3.9493661
## 4    189.26   -3.3950696
## 5    189.73  884.2018178
## 6    190.21 1011.9826105
## 7    190.69 1037.2621437
## 8    191.17 1071.2176472
## 9    191.64 1133.8706633
## 10   192.12 1065.2076455
## # ... with 2,058 more rows
## --- Member: filter ---
## Object: cps_spct [2,068 x 2]
## Wavelength range 187.82 to 1117.14 nm, step 0.41 to 0.48 nm 
## Label: Halogen 
## Measured on 2017-03-28 11:25:54 UTC 
## Data acquired with 'MayaPro2000' s.n. MAYP11278
## grating 'HC1', slit '010s'
## integ. time (s): 1.86, 7.2
## total time (s): 5.58, 7.2
## counts @ peak (% of max): 94.4
## 
## # A tibble: 2,068 × 2
##    w.length          cps
##       <dbl>        <dbl>
## 1    187.82   10.9473729
## 2    188.30    0.2771456
## 3    188.78   -4.0186536
## 4    189.26   -3.4643571
## 5    189.73  899.8843479
## 6    190.21 1045.2979871
## 7    190.69 1062.9045973
## 8    191.17 1101.9094513
## 9    191.64 1158.9968896
## 10   192.12 1101.2102082
## # ... with 2,058 more rows
## --- Member: dark ---
## Object: cps_spct [2,068 x 2]
## Wavelength range 187.82 to 1117.14 nm, step 0.41 to 0.48 nm 
## Label: Halogen 
## Measured on 2017-03-28 11:26:36 UTC 
## Data acquired with 'MayaPro2000' s.n. MAYP11278
## grating 'HC1', slit '010s'
## integ. time (s): 1.86, 7.2
## total time (s): 5.58, 7.2
## counts @ peak (% of max): 94.4
## 
## # A tibble: 2,068 × 2
##    w.length          cps
##       <dbl>        <dbl>
## 1    187.82   11.0628515
## 2    188.30   -0.1616727
## 3    188.78   -3.4874526
## 4    189.26   -3.7646009
## 5    189.73  860.2825093
## 6    190.21  991.0887877
## 7    190.69  975.0378660
## 8    191.17  999.1855825
## 9    191.64 1063.2995879
## 10   192.12  991.6471539
## # ... with 2,058 more rows
## 
## --- END ---
…
## Object: cps_mspct [2 x 1]
## --- Member: light ---
## Object: cps_spct [2,068 x 2]
## Wavelength range 187.82 to 1117.14 nm, step 0.41 to 0.48 nm 
## Label: Halogen 
## Measured on 2017-03-28 11:24:35 UTC 
## Data acquired with 'MayaPro2000' s.n. MAYP11278
## grating 'HC1', slit '010s'
## integ. time (s): 1.86, 7.2
## total time (s): 5.58, 7.2
## counts @ peak (% of max): 94.4
## 
## # A tibble: 2,068 × 2
##    w.length        cps
##       <dbl>      <dbl>
## 1    187.82 -0.4619156
## 2    188.30  0.5081056
## 3    188.78 -0.4619134
## 4    189.26  0.3695313
## 5    189.73 23.9193085
## 6    190.21 20.8938227
## 7    190.69 62.2242777
## 8    191.17 72.0320647
## 9    191.64 70.5710754
## 10   192.12 73.5604916
## # ... with 2,058 more rows
## --- Member: filter ---
## Object: cps_spct [2,068 x 2]
## Wavelength range 187.82 to 1117.14 nm, step 0.41 to 0.48 nm 
## Label: Halogen 
## Measured on 2017-03-28 11:25:54 UTC 
## Data acquired with 'MayaPro2000' s.n. MAYP11278
## grating 'HC1', slit '010s'
## integ. time (s): 1.86, 7.2
## total time (s): 5.58, 7.2
## counts @ peak (% of max): 94.4
## 
## # A tibble: 2,068 × 2
##    w.length         cps
##       <dbl>       <dbl>
## 1    187.82  -0.1154786
## 2    188.30   0.4388183
## 3    188.78  -0.5312009
## 4    189.26   0.3002438
## 5    189.73  39.6018386
## 6    190.21  54.2091993
## 7    190.69  87.8667313
## 8    191.17 102.7238688
## 9    191.64  95.6973017
## 10   192.12 109.5630543
## # ... with 2,058 more rows
## 
## --- END ---
…
