User Guide
…
one_file.spct <- trim_wl(one_file.spct, 
                         range = c(290, NA), 
                         use.hinges = FALSE, 
                         fill = 0)

one_file.spct

## Object: source_spct [1,421 x 2]
## Wavelength range 251.16 to 898.81 nm, step 0.43 to 0.48 nm 
## Label: light: irrad-files/light-short.txt 
## Measured on 2016-10-11 11:23:05 UTC 
## Time unit 1s
## 
## # A tibble: 1,421 x 2
##    w.length s.e.irrad
##  *    <dbl>     <dbl>
##  1     251.         0
##  2     252.         0
##  3     252.         0
##  4     253.         0
##  5     253.         0
##  6     254.         0
##  7     254          0
##  8     254.         0
##  9     255.         0
## 10     255.         0
## # ... with 1,411 more rows
…
five_files.spct

## Object: source_spct [1,421 x 2]
## Wavelength range 251.16 to 898.81 nm, step 0.43 to 0.48 nm 
## Label: light: irrad-files/light-short.txt, irrad-files/light-long.txt
## filter: irrad-files/flt-long.txt
## dark: irrad-files/dark-short.txt, irrad-files/dark-long.txt 
## Measured on 2016-10-11 11:23:05 UTC 
## Time unit 1s
## 
## # A tibble: 1,421 x 2
##    w.length s.e.irrad
##  *    <dbl>     <dbl>
##  1     251.         0
##  2     252.         0
##  3     252.         0
##  4     253.         0
##  5     253.         0
##  6     254.         0
##  7     254          0
##  8     254.         0
##  9     255.         0
## 10     255.         0
## # ... with 1,411 more rows
…
## Warning in trim_counts(.): Negative raw counts in data!
## These are not raw detector counts.

ov_files.spct

## Object: source_spct [1,436 x 2]
## Wavelength range 251.116 to 898.589 nm, step 0.428 to 0.47 nm 
## Label: light: irrad-files/light_MAYP112785.txt
## dark: irrad-files/dark_MAYP112785.txt 
## Measured on 2017-01-05 14:22:55 UTC 
## Time unit 1s
## 
## # A tibble: 1,436 x 2
##    w.length  s.e.irrad
##  *    <dbl>      <dbl>
##  1     251. -0.000187 
##  2     252.  0.0000198
##  3     252.  0.00113  
##  4     253. -0.000276 
##  5     253. -0.000949 
##  6     253. -0.000255 
##  7     254. -0.00113  
##  8     254.  0.000934 
##  9     255.  0.000392 
## 10     255.  0.000498 
## # ... with 1,426 more rows
…
## Warning in filter_correction(x = y[[spct.names["light"]]], flt =
## y[[spct.names["filter"]]], : No stray light correction applied to long end
## of spectrum.

irrad01.spct

## Object: source_spct [1,421 x 2]
## Wavelength range 251.16 to 898.81 nm, step 0.43 to 0.48 nm 
## what label: light
## user.label label: osram06 
## Measured on 2016-12-01 10:08:16 UTC 
## Time unit 1s
## 
## # A tibble: 1,421 x 2
##    w.length s.e.irrad
##  *    <dbl>     <dbl>
##  1     251.   0.00431
##  2     252.   0.00418
##  3     252.   0.00385
##  4     253.   0.00476
##  5     253.   0.00509
##  6     254.   0.00384
##  7     254    0.00413
##  8     254.   0.00290
##  9     255.   0.00305
## 10     255.   0.00301
## # ... with 1,411 more rows
…
## Warning in range_check_Tfr(x, strict.range = strict.range): Off-range
## transmittance values [0.00072..1.18021] instead of [0..1]

## Warning in range_check_Tfr(x, strict.range = strict.range): Off-range
## transmittance values [0.00072..1.18021] instead of [0..1]

tfr01.spct

## Object: filter_spct [2,068 x 2]
## Wavelength range 187.82 to 1117.14 nm, step 0.41 to 0.48 nm 
## what label: sample
## user.label label: UQG_Blue 
## Measured on 2016-11-28 14:46:25 UTC 
## 
## # A tibble: 2,068 x 2
##    w.length   Tfr
##       <dbl> <dbl>
##  1     188.    NA
##  2     188.    NA
##  3     189.    NA
##  4     189.    NA
##  5     190.    NA
##  6     190.    NA
##  7     191.    NA
##  8     191.    NA
##  9     192.    NA
## 10     192.    NA
## # ... with 2,058 more rows
…
tfr02.spct <- trim_wl(tfr02.spct, c(460, 1000))

## Warning in range_check_Tfr(x, strict.range = strict.range): Off-range
## transmittance values [0.00072..1.18021] instead of [0..1]

tfr02.spct

## Object: filter_spct [1,213 x 2]
## Wavelength range 460 to 1000 nm, step 0.13 to 0.47 nm 
## what label: sample
## user.label label: UQG_Blue 
## Measured on 2016-11-28 14:46:25 UTC 
## 
## # A tibble: 1,213 x 2
##    w.length   Tfr
##  *    <dbl> <dbl>
##  1     460  0.908
##  2     460. 0.908
##  3     461. 0.901
##  4     461. 0.888
##  5     462. 0.884
##  6     462. 0.880
##  7     462. 0.865
##  8     463. 0.862
##  9     463. 0.852
## 10     464. 0.839
## # ... with 1,203 more rows
…
rfr01.spct <- trim_wl(rfr01.spct, c(460, 1000))

## Warning in range_check(x, strict.range = strict.range): Off-range
## reflectance values [0.00072..1.18021] instead of [0..1]

rfr01.spct

## Object: reflector_spct [1,213 x 2]
## Wavelength range 460 to 1000 nm, step 0.13 to 0.47 nm 
## what label: sample
## user.label label: UQG_Blue 
## Measured on 2016-11-28 14:46:25 UTC 
## 
## # A tibble: 1,213 x 2
##    w.length   Rfr
##  *    <dbl> <dbl>
##  1     460  0.908
##  2     460. 0.908
##  3     461. 0.901
##  4     461. 0.888
##  5     462. 0.884
##  6     462. 0.880
##  7     462. 0.865
##  8     463. 0.862
##  9     463. 0.852
## 10     464. 0.839
## # ... with 1,203 more rows
…
