User Guide
…
one_file.spct <- trim_wl(one_file.spct, 
                         range = c(290, NA), 
                         use.hinges = FALSE, 
                         fill = 0)

one_file.spct

## Object: source_spct [1,421 x 2]
## Wavelength range 251.16 to 898.81 nm, step 0.43 to 0.48 nm 
## Label: light: irrad-files/light-short.txt 
## Measured on 2016-10-11 11:23:05 UTC 
## Time unit 1s
## 
## # A tibble: 1,421 x 2
##    w.length s.e.irrad
##  *    <dbl>     <dbl>
##  1     251.         0
##  2     252.         0
##  3     252.         0
##  4     253.         0
##  5     253.         0
##  6     254.         0
##  7     254          0
##  8     254.         0
##  9     255.         0
## 10     255.         0
## # ... with 1,411 more rows
…
five_files.spct

## Object: source_spct [1,421 x 2]
## Wavelength range 251.16 to 898.81 nm, step 0.43 to 0.48 nm 
## Label: light: irrad-files/light-short.txt, irrad-files/light-long.txt
## filter: irrad-files/flt-long.txt
## dark: irrad-files/dark-short.txt, irrad-files/dark-long.txt 
## Measured on 2016-10-11 11:23:05 UTC 
## Time unit 1s
## 
## # A tibble: 1,421 x 2
##    w.length s.e.irrad
##  *    <dbl>     <dbl>
##  1     251.         0
##  2     252.         0
##  3     252.         0
##  4     253.         0
##  5     253.         0
##  6     254.         0
##  7     254          0
##  8     254.         0
##  9     255.         0
## 10     255.         0
## # ... with 1,411 more rows
…
## Warning in trim_counts(x): Negative raw counts in data!
## These are not true raw detector counts.
## A dark correction may have been applied.

ov_files.spct

## Object: source_spct [1,436 x 2]
## Wavelength range 251.116 to 898.589 nm, step 0.428 to 0.47 nm 
## Label: light: irrad-files/light_MAYP112785.txt
## dark: irrad-files/dark_MAYP112785.txt 
## Measured on 2017-01-05 14:22:55 UTC 
## Time unit 1s
## 
## # A tibble: 1,436 x 2
##    w.length  s.e.irrad
##  *    <dbl>      <dbl>
##  1     251. -0.000233 
##  2     252.  0.0000245
##  3     252.  0.00141  
##  4     253. -0.000341 
##  5     253. -0.00118  
##  6     253. -0.000314 
##  7     254. -0.00139  
##  8     254.  0.00116  
##  9     255.  0.000484 
## 10     255.  0.000611 
## # ... with 1,426 more rows
…
irrad01.spct

## Object: source_spct [1,421 x 2]
## Wavelength range 251.16 to 898.81 nm, step 0.43 to 0.48 nm 
## Label: light: Nichia.horticulture.5000K 
## Measured on 2019-06-25 14:03:10 UTC 
## Time unit 1s
## 
## # A tibble: 1,421 x 2
##    w.length s.e.irrad
##  *    <dbl>     <dbl>
##  1     251.  0.000978
##  2     252.  0.00178 
##  3     252.  0.000309
##  4     253.  0.000987
##  5     253.  0.000723
##  6     254.  0.000742
##  7     254   0.000716
##  8     254.  0.000905
##  9     255.  0.00113 
## 10     255.  0.00195 
## # ... with 1,411 more rows
…
tfr01.spct

## Object: filter_spct [2,068 x 2]
## Wavelength range 187.82 to 1117.14 nm, step 0.41 to 0.48 nm 
## what label: sample
## user.label label: UQG_Blue 
## Measured on 2016-11-28 14:46:25 UTC 
## Transmittance of type 'total'
## Rfr (/1): NA, thickness (mm): NA, attenuation mode: NA.
## 
## # A tibble: 2,068 x 2
##    w.length   Tfr
##       <dbl> <dbl>
##  1     188.    NA
##  2     188.    NA
##  3     189.    NA
##  4     189.    NA
##  5     190.    NA
##  6     190.    NA
##  7     191.    NA
##  8     191.    NA
##  9     192.    NA
## 10     192.    NA
## # ... with 2,058 more rows
…
## Object: filter_spct [1,213 x 2]
## Wavelength range 460 to 1000 nm, step 0.13 to 0.47 nm 
## what label: sample
## user.label label: UQG_Blue 
## Measured on 2016-11-28 14:46:25 UTC 
## Transmittance of type 'total'
## Rfr (/1): NA, thickness (mm): NA, attenuation mode: NA.
## 
## # A tibble: 1,213 x 2
##    w.length   Tfr
##  *    <dbl> <dbl>
##  1     460  0.858
##  2     460. 0.858
##  3     461. 0.852
##  4     461. 0.840
##  5     462. 0.837
##  6     462. 0.834
##  7     462. 0.820
##  8     463. 0.817
##  9     463. 0.809
## 10     464. 0.797
## # ... with 1,203 more rows
…
## Object: reflector_spct [1,213 x 2]
## Wavelength range 460 to 1000 nm, step 0.13 to 0.47 nm 
## what label: sample
## user.label label: UQG_Blue 
## Measured on 2016-11-28 14:46:25 UTC 
## Reflectance of type 'total'
## 
## # A tibble: 1,213 x 2
##    w.length   Rfr
##  *    <dbl> <dbl>
##  1     460  0.858
##  2     460. 0.858
##  3     461. 0.852
##  4     461. 0.840
##  5     462. 0.837
##  6     462. 0.834
##  7     462. 0.820
##  8     463. 0.817
##  9     463. 0.809
## 10     464. 0.797
## # ... with 1,203 more rows
…
