ooacquire 0.1.1.9002 Algorithms
…
## [1] "LED_lamp04_long.raw_spct" "LED_lamp04_long.spct"    
## [3] "dirpath"                  "oldLC"

We first print and plot the irradiance spectrum as read from the file.

LED_lamp04_long.spct

## Object: source_spct [1,421 x 2]
## Wavelength range 251.16 to 898.81 nm, step 0.43 to 0.48 nm 
## Label: LED_lamp04_long 
## Measured on 2017-04-12 16:34:00 UTC 
## Time unit 1s
## 
## # A tibble: 1,421 × 2
##    w.length     s.e.irrad
## *     <dbl>         <dbl>
## 1    251.16 -4.840817e-05
## 2    251.63 -3.784879e-05
## 3    252.10 -3.940292e-04
## 4    252.58  9.165484e-05
## 5    253.05  4.335889e-06
## 6    253.53 -2.272898e-05
## 7    254.00  1.366338e-04
## 8    254.48  2.278886e-05
## 9    254.95  1.589077e-05
## 10   255.43 -2.244188e-04
## # ... with 1,411 more rows
…
LED_lamp04_long.raw_spct

## Object: raw_mspct [2 x 1]
## --- Member: light ---
## Object: raw_spct [2,068 x 4]
## Wavelength range 187.82 to 1117.14 nm, step 0.41 to 0.48 nm 
## Label: LED_lamp04_long 
## Measured on 2017-04-12 16:34:00 UTC 
## Data acquired with 'MayaPro2000' s.n. MAYP11278
## grating 'HC1', slit '010s'
## integ. time (s): 1.52, 6, 7.06
## total time (s): 120, 120, 120
## counts @ peak (% of max): 94.2
## 
## # A tibble: 2,068 × 4
##    w.length counts_1 counts_2  counts_3
##       <dbl>    <dbl>    <dbl>     <dbl>
## 1    187.82 2301.291  2300.35  2300.765
## 2    188.30 2217.962  2217.80  2218.706
## 3    188.78 2189.101  2189.10  2189.765
## 4    189.26 2189.772  2190.50  2190.294
## 5    189.73 4147.063  9861.40 11354.706
## 6    190.21 4340.177 10680.55 12304.294
## 7    190.69 4322.215 10632.05 12229.353
## 8    191.17 4397.886 10945.40 12610.824
## 9    191.64 4497.089 11321.85 13031.706
## 10   192.12 4368.380 10820.90 12478.353
## # ... with 2,058 more rows
## --- Member: dark ---
## Object: raw_spct [2,068 x 4]
## Wavelength range 187.82 to 1117.14 nm, step 0.41 to 0.48 nm 
## Label: LED_lamp04_long 
## Measured on 2017-04-12 16:40:24 UTC 
## Data acquired with 'MayaPro2000' s.n. MAYP11278
## grating 'HC1', slit '010s'
## integ. time (s): 1.52, 6, 7.06
## total time (s): 120, 120, 120
## counts @ peak (% of max): 94.2
## 
## # A tibble: 2,068 × 4
##    w.length counts_1 counts_2  counts_3
##       <dbl>    <dbl>    <dbl>     <dbl>
## 1    187.82 2301.519  2303.60  2303.412
## 2    188.30 2218.430  2218.80  2218.353
## 3    188.78 2189.481  2188.70  2191.412
## 4    189.26 2190.848  2189.95  2191.235
## 5    189.73 4228.076 10177.50 11685.941
## 6    190.21 4426.608 11018.60 12648.471
## 7    190.69 4403.481 10929.25 12563.588
## 8    191.17 4472.797 11229.10 12905.647
## 9    191.64 4585.354 11617.70 13398.941
## 10   192.12 4445.000 11110.90 12798.706
## # ... with 2,058 more rows
## 
## --- END ---
…
We first print and plot the irradiance spectrum as read from the file.

Halogen.spct

## Object: source_spct [1,421 x 2]
## Wavelength range 251.16 to 898.81 nm, step 0.43 to 0.48 nm 
## Label: Halogen 
## Measured on 2017-03-28 11:24:35 UTC 
## Time unit 1s
## 
## # A tibble: 1,421 × 2
##    w.length    s.e.irrad
## *     <dbl>        <dbl>
## 1    251.16 0.0002660290
## 2    251.63 0.0011004515
## 3    252.10 0.0000478481
## 4    252.58 0.0003799574
## 5    253.05 0.0003379683
## 6    253.53 0.0005571774
## 7    254.00 0.0011422229
## 8    254.48 0.0011303313
## 9    254.95 0.0001980943
## 10   255.43 0.0006559003
## # ... with 1,411 more rows
…
Halogen.raw_spct

## Object: raw_mspct [3 x 1]
## --- Member: light ---
## Object: raw_spct [2,068 x 3]
## Wavelength range 187.82 to 1117.14 nm, step 0.41 to 0.48 nm 
## Label: Halogen 
## Measured on 2017-03-28 11:24:35 UTC 
## Data acquired with 'MayaPro2000' s.n. MAYP11278
## grating 'HC1', slit '010s'
## integ. time (s): 1.86, 7.2
## total time (s): 5.58, 7.2
## counts @ peak (% of max): 94.4
## 
## # A tibble: 2,068 × 3
##    w.length counts_1 counts_2
##       <dbl>    <dbl>    <dbl>
## 1    187.82 2288.333     2285
## 2    188.30 2210.000     2211
## 3    188.78 2182.333     2180
## 4    189.26 2181.667     2184
## 5    189.73 3865.000     8578
## 6    190.21 4119.667     9494
## 7    190.69 4114.000     9675
## 8    191.17 4178.667     9918
## 9    191.64 4310.000    10366
## 10   192.12 4189.667     9875
## # ... with 2,058 more rows
## --- Member: filter ---
## Object: raw_spct [2,068 x 3]
## Wavelength range 187.82 to 1117.14 nm, step 0.41 to 0.48 nm 
## Label: Halogen 
## Measured on 2017-03-28 11:25:54 UTC 
## Data acquired with 'MayaPro2000' s.n. MAYP11278
## grating 'HC1', slit '010s'
## integ. time (s): 1.86, 7.2
## total time (s): 5.58, 7.2
## counts @ peak (% of max): 94.4
## 
## # A tibble: 2,068 × 3
##    w.length counts_1 counts_2
##       <dbl>    <dbl>    <dbl>
## 1    187.82 2290.333     2290
## 2    188.30 2212.333     2213
## 3    188.78 2183.333     2182
## 4    189.26 2181.333     2186
## 5    189.73 3924.667     8693
## 6    190.21 4178.333     9735
## 7    190.69 4188.333     9861
## 8    191.17 4262.000    10140
## 9    191.64 4397.333    10548
## 10   192.12 4229.333    10135
## # ... with 2,058 more rows
## --- Member: dark ---
## Object: raw_spct [2,068 x 3]
## Wavelength range 187.82 to 1117.14 nm, step 0.41 to 0.48 nm 
## Label: Halogen 
## Measured on 2017-03-28 11:26:36 UTC 
## Data acquired with 'MayaPro2000' s.n. MAYP11278
## grating 'HC1', slit '010s'
## integ. time (s): 1.86, 7.2
## total time (s): 5.58, 7.2
## counts @ peak (% of max): 94.4
## 
## # A tibble: 2,068 × 3
##    w.length counts_1 counts_2
##       <dbl>    <dbl>    <dbl>
## 1    187.82 2287.667     2290
## 2    188.30 2211.667     2209
## 3    188.78 2182.667     2185
## 4    189.26 2182.667     2183
## 5    189.73 3816.000     8408
## 6    190.21 4053.667     9346
## 7    190.69 4000.333     9231
## 8    191.17 4062.000     9404
## 9    191.64 4179.667     9863
## 10   192.12 4053.000     9350
## # ... with 2,058 more rows
## 
## --- END ---
…
## Warning in range_check(x, cps.cols): Off-range cps values, min =
## -1125.56891400327, max = 12.2511154281607

## # A tibble: 2,068 × 2
##    w.length         cps
##       <dbl>       <dbl>
## 1    187.82 -1111.01861
## 2    188.30 -1121.27311
## 3    188.78 -1125.56891
## 4    189.26 -1125.01462
## 5    189.73  -237.41773
## 6    190.21  -109.63694
## 7    190.69   -84.35740
## 8    191.17   -50.40190
## 9    191.64    12.25112
## 10   192.12   -56.41190
## # ... with 2,058 more rows
## --- Member: filter ---
## Object: cps_spct [2,068 x 2]
## Wavelength range 187.82 to 1117.14 nm, step 0.41 to 0.48 nm 
## Label: Halogen 
## Measured on 2017-03-28 11:25:54 UTC 
## Data acquired with 'MayaPro2000' s.n. MAYP11278
## grating 'HC1', slit '010s'
## integ. time (s): 1.86, 7.2
## total time (s): 5.58, 7.2
## counts @ peak (% of max): 94.4

## Warning in range_check(x, cps.cols): Off-range cps values, min =
## -1158.81552066903, max = 4.20002249022142

## # A tibble: 2,068 × 2
##    w.length          cps
##       <dbl>        <dbl>
## 1    187.82 -1143.849494
## 2    188.30 -1154.519721
## 3    188.78 -1158.815521
## 4    189.26 -1158.261224
## 5    189.73  -254.912519
## 6    190.21  -109.498880
## 7    190.69   -91.892270
## 8    191.17   -52.887416
## 9    191.64     4.200022
## 10   192.12   -53.586659
## # ... with 2,058 more rows
## --- Member: dark ---
## Object: cps_spct [2,068 x 2]
## Wavelength range 187.82 to 1117.14 nm, step 0.41 to 0.48 nm 
## Label: Halogen 
## Measured on 2017-03-28 11:26:36 UTC 
## Data acquired with 'MayaPro2000' s.n. MAYP11278
## grating 'HC1', slit '010s'
## integ. time (s): 1.86, 7.2
## total time (s): 5.58, 7.2
## counts @ peak (% of max): 94.4

## Warning in range_check(x, cps.cols): Off-range cps values, min =
## -1049.67111583947, max = 17.3930729884071

## # A tibble: 2,068 × 2
##    w.length         cps
##       <dbl>       <dbl>
## 1    187.82 -1034.84366
## 2    188.30 -1046.06819
## 3    188.78 -1049.39397
## 4    189.26 -1049.67112
## 5    189.73  -185.62401
## 6    190.21   -54.81773
## 7    190.69   -70.86865
## 8    191.17   -46.72093
## 9    191.64    17.39307
## 10   192.12   -54.25936
## # ... with 2,058 more rows
## 
## --- END ---
…
## Warning in range_check(x, cps.cols): Off-range cps values, min =
## -76.1749485239352, max = 0

## # A tibble: 2,068 × 2
##    w.length        cps
##       <dbl>      <dbl>
## 1    187.82 -76.174949
## 2    188.30 -75.204927
## 3    188.78 -76.174946
## 4    189.26 -75.343502
## 5    189.73 -51.793724
## 6    190.21 -54.819210
## 7    190.69 -13.488755
## 8    191.17  -3.680968
## 9    191.64  -5.141958
## 10   192.12  -2.152541
## # ... with 2,058 more rows
## --- Member: filter ---
## Object: cps_spct [2,068 x 2]
## Wavelength range 187.82 to 1117.14 nm, step 0.41 to 0.48 nm 
## Label: Halogen 
## Measured on 2017-03-28 11:25:54 UTC 
## Data acquired with 'MayaPro2000' s.n. MAYP11278
## grating 'HC1', slit '010s'
## integ. time (s): 1.86, 7.2
## total time (s): 5.58, 7.2
## counts @ peak (% of max): 94.4

## Warning in range_check(x, cps.cols): Off-range cps values, min =
## -109.421553074247, max = 0.672702160904166

## # A tibble: 2,068 × 2
##    w.length          cps
##       <dbl>        <dbl>
## 1    187.82 -109.0058307
## 2    188.30 -108.4515338
## 3    188.78 -109.4215531
## 4    189.26 -108.5901083
## 5    189.73  -69.2885135
## 6    190.21  -54.6811528
## 7    190.69  -21.0236209
## 8    191.17   -6.1664834
## 9    191.64  -13.1930505
## 10   192.12    0.6727022
## # ... with 2,058 more rows
## 
## --- END ---
…
