ooacquire 0.1.0.9022 User Guide
…
one_file.spct <- trim_wl(one_file.spct, 
                         range = c(290, NA), 
                         use.hinges = FALSE, 
                         fill = 0)

one_file.spct

## Object: source_spct [1,421 x 2]
## Wavelength range 251.16 to 898.81 nm, step 0.43 to 0.48 nm 
## Label: light: light-short.txt
## Measured on 2016-10-11 11:23:05 UTC
## Time unit 1s
## 
## # A tibble: 1,421 × 2
##    w.length s.e.irrad
## *     <dbl>     <dbl>
## 1    251.16         0
## 2    251.63         0
## 3    252.10         0
## 4    252.58         0
## 5    253.05         0
## 6    253.53         0
## 7    254.00         0
## 8    254.48         0
## 9    254.95         0
## 10   255.43         0
## # ... with 1,411 more rows
…
five_files.spct

## Object: source_spct [1,421 x 2]
## Wavelength range 251.16 to 898.81 nm, step 0.43 to 0.48 nm 
## Label: light: light-short.txt, light-long.txt
## filter: flt-long.txt
## dark: dark-short.txt, dark-long.txt
## Measured on 2016-10-11 11:23:05 UTC
## Time unit 1s
## 
## # A tibble: 1,421 × 2
##    w.length s.e.irrad
## *     <dbl>     <dbl>
## 1    251.16         0
## 2    251.63         0
## 3    252.10         0
## 4    252.58         0
## 5    253.05         0
## 6    253.53         0
## 7    254.00         0
## 8    254.48         0
## 9    254.95         0
## 10   255.43         0
## # ... with 1,411 more rows
…
## Warning in ooacquire::uvb_corrections(x = x[["light"]], flt =
## x[["filter"]], : Too low cps in filter reference region, skipping filter
## correction.

irrad01.spct

## Object: source_spct [1,421 x 2]
## Wavelength range 251.16 to 898.81 nm, step 0.43 to 0.48 nm 
## Label: light for osram06
## Measured on 2016-12-01 10:08:16 UTC
## Time unit 1s
## 
## # A tibble: 1,421 × 2
##    w.length     s.e.irrad
## *     <dbl>         <dbl>
## 1    251.16  3.293024e-04
## 2    251.63  5.141213e-04
## 3    252.10 -6.646490e-05
## 4    252.58 -9.466045e-05
## 5    253.05  4.641909e-04
## 6    253.53  1.365703e-03
## 7    254.00 -7.434054e-05
## 8    254.48  7.204147e-05
## 9    254.95 -2.770591e-04
## 10   255.43  3.862382e-04
## # ... with 1,411 more rows
…
## Warning in range_check(x, cps.cols): Off-range cps values, min =
## -16.2765739001448, max = 10.5339298610056

tfr01.spct

## Object: filter_spct [2,068 x 2]
## Wavelength range 187.82 to 1117.14 nm, step 0.41 to 0.48 nm 
## Label: sample for UQG_Blue
## Measured on 2016-11-28 14:46:25 UTC
## 
## # A tibble: 2,068 × 2
##    w.length   Tfr
##       <dbl> <dbl>
## 1    187.82    NA
## 2    188.30    NA
## 3    188.78    NA
## 4    189.26    NA
## 5    189.73    NA
## 6    190.21    NA
## 7    190.69    NA
## 8    191.17    NA
## 9    191.64    NA
## 10   192.12    NA
## # ... with 2,058 more rows
…
