User Guide
…
one_file.spct <- trim_wl(one_file.spct, 
                         range = c(290, NA), 
                         use.hinges = FALSE, 
                         fill = 0)

one_file.spct

## Object: source_spct [1,421 x 2]
## Wavelength range 251.16 to 898.81 nm, step 0.43 to 0.48 nm 
## Label: light: light-short.txt 
## Measured on 2016-10-11 11:23:05 UTC 
## Time unit 1s
## 
## # A tibble: 1,421 x 2
##    w.length s.e.irrad
##  *    <dbl>     <dbl>
##  1   251.16         0
##  2   251.63         0
##  3   252.10         0
##  4   252.58         0
##  5   253.05         0
##  6   253.53         0
##  7   254.00         0
##  8   254.48         0
##  9   254.95         0
## 10   255.43         0
## # ... with 1,411 more rows
…
five_files.spct

## Object: source_spct [1,421 x 2]
## Wavelength range 251.16 to 898.81 nm, step 0.43 to 0.48 nm 
## Label: light: light-short.txt, light-long.txt
## filter: flt-long.txt
## dark: dark-short.txt, dark-long.txt 
## Measured on 2016-10-11 11:23:05 UTC 
## Time unit 1s
## 
## # A tibble: 1,421 x 2
##    w.length s.e.irrad
##  *    <dbl>     <dbl>
##  1   251.16         0
##  2   251.63         0
##  3   252.10         0
##  4   252.58         0
##  5   253.05         0
##  6   253.53         0
##  7   254.00         0
##  8   254.48         0
##  9   254.95         0
## 10   255.43         0
## # ... with 1,411 more rows
…
## Warning in range_check(x, cps.cols): Off-range cps values, min =
## -52.5839216499318, max = 13.3907648317327

ov_files.spct

## Object: source_spct [1,436 x 2]
## Wavelength range 251.116 to 898.589 nm, step 0.428 to 0.47 nm 
## Label: light: light_MAYP112785.txt
## dark: dark_MAYP112785.txt 
## Measured on 2017-01-05 14:22:55 UTC 
## Time unit 1s
## 
## # A tibble: 1,436 x 2
##    w.length     s.e.irrad
##  *    <dbl>         <dbl>
##  1  251.116 -0.0001866098
##  2  251.586  0.0000198477
##  3  252.055  0.0011316948
##  4  252.525 -0.0002764672
##  5  252.994 -0.0009489246
##  6  253.464 -0.0002546838
##  7  253.933 -0.0011313231
##  8  254.403  0.0009336129
##  9  254.872  0.0003924598
## 10  255.341  0.0004984134
## # ... with 1,426 more rows
…
## Warning in filter_correction(x = y[[spct.names["light"]]], flt =
## y[[spct.names["filter"]]], : No stray light correction applied to long end
## of spectrum.

irrad01.spct

## Object: source_spct [1,421 x 2]
## Wavelength range 251.16 to 898.81 nm, step 0.43 to 0.48 nm 
## what label: light
## user.label label: osram06 
## Measured on 2016-12-01 10:08:16 UTC 
## Time unit 1s
## 
## # A tibble: 1,421 x 2
##    w.length   s.e.irrad
##  *    <dbl>       <dbl>
##  1   251.16 0.004314156
##  2   251.63 0.004184169
##  3   252.10 0.003847835
##  4   252.58 0.004763573
##  5   253.05 0.005094774
##  6   253.53 0.003838450
##  7   254.00 0.004133885
##  8   254.48 0.002904687
##  9   254.95 0.003052997
## 10   255.43 0.003011101
## # ... with 1,411 more rows
…
## Warning in range_check(x, strict.range = strict.range): Off-range
## transmittance values [0.00072...1.2] instead of [0..1]

## Warning in range_check(x, strict.range = strict.range): Off-range
## transmittance values [0.00072...1.2] instead of [0..1]

tfr01.spct

## Object: filter_spct [2,068 x 2]
## Wavelength range 187.82 to 1117.14 nm, step 0.41 to 0.48 nm 
## what label: sample
## user.label label: UQG_Blue 
## Measured on 2016-11-28 14:46:25 UTC 
## 
## # A tibble: 2,068 x 2
##    w.length   Tfr
##       <dbl> <dbl>
##  1   187.82    NA
##  2   188.30    NA
##  3   188.78    NA
##  4   189.26    NA
##  5   189.73    NA
##  6   190.21    NA
##  7   190.69    NA
##  8   191.17    NA
##  9   191.64    NA
## 10   192.12    NA
## # ... with 2,058 more rows
…
