Algorithms
…
## Object: raw_mspct [3 x 1]
## --- Member: light ---
## Object: raw_spct [2,068 x 3]
## Wavelength range 187.82 to 1117.14 nm, step 0.41 to 0.48 nm 
## what label: light
## user.label label: osram06 
## Measured on 2016-12-01 12:08:16 UTC 
## Data acquired with 'MayaPro2000' s.n. MAYP11278
## grating 'HC1', slit '010s'
## integ. time (s): 0.32, 3.2
## total time (s): 5.11, 6.39
## counts @ peak (% of max): 94.3
## 
## # A tibble: 2,068 x 3
##    w.length counts_1 counts_2
##       <dbl>    <dbl>    <dbl>
##  1   187.82 2302.500   2303.0
##  2   188.30 2220.688   2219.5
##  3   188.78 2190.250   2188.0
##  4   189.26 2192.938   2191.5
##  5   189.73 2593.625   6033.5
##  6   190.21 2629.500   6421.0
##  7   190.69 2645.625   6624.5
##  8   191.17 2658.125   6647.0
##  9   191.64 2690.375   6990.5
## 10   192.12 2658.312   6684.5
## # ... with 2,058 more rows
## --- Member: filter ---
## Object: raw_spct [2,068 x 3]
## Wavelength range 187.82 to 1117.14 nm, step 0.41 to 0.48 nm 
## what label: filter
## user.label label: osram06 
## Measured on 2016-12-01 10:08:16 UTC 
## Data acquired with 'MayaPro2000' s.n. MAYP11278
## grating 'HC1', slit '010s'
## integ. time (s): 0.32, 3.2
## total time (s): 5.11, 6.39
## counts @ peak (% of max): 94.3
## 
## # A tibble: 2,068 x 3
##    w.length counts_1 counts_2
##       <dbl>    <dbl>    <dbl>
##  1   187.82 2299.500   2302.5
##  2   188.30 2219.312   2222.0
##  3   188.78 2189.125   2193.5
##  4   189.26 2189.875   2193.5
##  5   189.73 2595.438   5988.0
##  6   190.21 2624.000   6393.0
##  7   190.69 2635.000   6456.0
##  8   191.17 2634.000   6499.5
##  9   191.64 2668.438   6701.0
## 10   192.12 2635.375   6479.0
## # ... with 2,058 more rows
## --- Member: dark ---
## Object: raw_spct [2,068 x 3]
## Wavelength range 187.82 to 1117.14 nm, step 0.41 to 0.48 nm 
## what label: dark
## user.label label: osram06 
## Measured on 2016-12-01 10:08:16 UTC 
## Data acquired with 'MayaPro2000' s.n. MAYP11278
## grating 'HC1', slit '010s'
## integ. time (s): 0.32, 3.2
## total time (s): 5.11, 6.39
## counts @ peak (% of max): 94.3
## 
## # A tibble: 2,068 x 3
##    w.length counts_1 counts_2
##       <dbl>    <dbl>    <dbl>
##  1   187.82 2301.062   2303.0
##  2   188.30 2218.625   2224.0
##  3   188.78 2190.000   2192.0
##  4   189.26 2192.188   2192.5
##  5   189.73 2589.750   6002.0
##  6   190.21 2624.500   6405.5
##  7   190.69 2634.500   6436.5
##  8   191.17 2634.250   6540.5
##  9   191.64 2663.062   6757.5
## 10   192.12 2637.812   6547.5
## # ... with 2,058 more rows
## 
## --- END ---
…
halogen.raw_mspct

## Object: raw_mspct [3 x 1]
## --- Member: light ---
## Object: raw_spct [2,068 x 3]
## Wavelength range 187.82 to 1117.14 nm, step 0.41 to 0.48 nm 
## Label: Halogen 
## Measured on 2017-03-28 11:24:35 UTC 
## Data acquired with 'MayaPro2000' s.n. MAYP11278
## grating 'HC1', slit '010s'
## integ. time (s): 1.86, 7.2
## total time (s): 5.58, 7.2
## counts @ peak (% of max): 94.4
## 
## # A tibble: 2,068 x 3
##    w.length counts_1 counts_2
##       <dbl>    <dbl>    <dbl>
##  1   187.82 2288.333     2285
##  2   188.30 2210.000     2211
##  3   188.78 2182.333     2180
##  4   189.26 2181.667     2184
##  5   189.73 3865.000     8578
##  6   190.21 4119.667     9494
##  7   190.69 4114.000     9675
##  8   191.17 4178.667     9918
##  9   191.64 4310.000    10366
## 10   192.12 4189.667     9875
## # ... with 2,058 more rows
## --- Member: filter ---
## Object: raw_spct [2,068 x 3]
## Wavelength range 187.82 to 1117.14 nm, step 0.41 to 0.48 nm 
## Label: Halogen 
## Measured on 2017-03-28 11:25:54 UTC 
## Data acquired with 'MayaPro2000' s.n. MAYP11278
## grating 'HC1', slit '010s'
## integ. time (s): 1.86, 7.2
## total time (s): 5.58, 7.2
## counts @ peak (% of max): 94.4
## 
## # A tibble: 2,068 x 3
##    w.length counts_1 counts_2
##       <dbl>    <dbl>    <dbl>
##  1   187.82 2290.333     2290
##  2   188.30 2212.333     2213
##  3   188.78 2183.333     2182
##  4   189.26 2181.333     2186
##  5   189.73 3924.667     8693
##  6   190.21 4178.333     9735
##  7   190.69 4188.333     9861
##  8   191.17 4262.000    10140
##  9   191.64 4397.333    10548
## 10   192.12 4229.333    10135
## # ... with 2,058 more rows
## --- Member: dark ---
## Object: raw_spct [2,068 x 3]
## Wavelength range 187.82 to 1117.14 nm, step 0.41 to 0.48 nm 
## Label: Halogen 
## Measured on 2017-03-28 11:26:36 UTC 
## Data acquired with 'MayaPro2000' s.n. MAYP11278
## grating 'HC1', slit '010s'
## integ. time (s): 1.86, 7.2
## total time (s): 5.58, 7.2
## counts @ peak (% of max): 94.4
## 
## # A tibble: 2,068 x 3
##    w.length counts_1 counts_2
##       <dbl>    <dbl>    <dbl>
##  1   187.82 2287.667     2290
##  2   188.30 2211.667     2209
##  3   188.78 2182.667     2185
##  4   189.26 2182.667     2183
##  5   189.73 3816.000     8408
##  6   190.21 4053.667     9346
##  7   190.69 4000.333     9231
##  8   191.17 4062.000     9404
##  9   191.64 4179.667     9863
## 10   192.12 4053.000     9350
## # ... with 2,058 more rows
## 
## --- END ---
…
## Object: cps_mspct [3 x 1]
## --- Member: light ---
## Object: cps_spct [2,068 x 2]
## Wavelength range 187.82 to 1117.14 nm, step 0.41 to 0.48 nm 
## Label: Halogen 
## Measured on 2017-03-28 11:24:35 UTC 
## Data acquired with 'MayaPro2000' s.n. MAYP11278
## grating 'HC1', slit '010s'
## integ. time (s): 1.86, 7.2
## total time (s): 5.58, 7.2
## counts @ peak (% of max): 94.4
## 
## # A tibble: 2,068 x 2
##    w.length          cps
##       <dbl>        <dbl>
##  1   187.82   10.6009359
##  2   188.30    0.3464329
##  3   188.78   -3.9493661
##  4   189.26   -3.3950696
##  5   189.73  884.2018178
##  6   190.21 1011.9826105
##  7   190.69 1037.2621437
##  8   191.17 1071.2176472
##  9   191.64 1133.8706633
## 10   192.12 1065.2076455
## # ... with 2,058 more rows
## --- Member: filter ---
## Object: cps_spct [2,068 x 2]
## Wavelength range 187.82 to 1117.14 nm, step 0.41 to 0.48 nm 
## Label: Halogen 
## Measured on 2017-03-28 11:25:54 UTC 
## Data acquired with 'MayaPro2000' s.n. MAYP11278
## grating 'HC1', slit '010s'
## integ. time (s): 1.86, 7.2
## total time (s): 5.58, 7.2
## counts @ peak (% of max): 94.4
## 
## # A tibble: 2,068 x 2
##    w.length          cps
##       <dbl>        <dbl>
##  1   187.82   10.9473729
##  2   188.30    0.2771456
##  3   188.78   -4.0186536
##  4   189.26   -3.4643571
##  5   189.73  899.8843479
##  6   190.21 1045.2979871
##  7   190.69 1062.9045973
##  8   191.17 1101.9094513
##  9   191.64 1158.9968896
## 10   192.12 1101.2102082
## # ... with 2,058 more rows
## --- Member: dark ---
## Object: cps_spct [2,068 x 2]
## Wavelength range 187.82 to 1117.14 nm, step 0.41 to 0.48 nm 
## Label: Halogen 
## Measured on 2017-03-28 11:26:36 UTC 
## Data acquired with 'MayaPro2000' s.n. MAYP11278
## grating 'HC1', slit '010s'
## integ. time (s): 1.86, 7.2
## total time (s): 5.58, 7.2
## counts @ peak (% of max): 94.4
## 
## # A tibble: 2,068 x 2
##    w.length          cps
##       <dbl>        <dbl>
##  1   187.82   11.0628515
##  2   188.30   -0.1616727
##  3   188.78   -3.4874526
##  4   189.26   -3.7646009
##  5   189.73  860.2825093
##  6   190.21  991.0887877
##  7   190.69  975.0378660
##  8   191.17  999.1855825
##  9   191.64 1063.2995879
## 10   192.12  991.6471539
## # ... with 2,058 more rows
## 
## --- END ---
…
## Object: cps_mspct [2 x 1]
## --- Member: light ---
## Object: cps_spct [2,068 x 2]
## Wavelength range 187.82 to 1117.14 nm, step 0.41 to 0.48 nm 
## Label: Halogen 
## Measured on 2017-03-28 11:24:35 UTC 
## Data acquired with 'MayaPro2000' s.n. MAYP11278
## grating 'HC1', slit '010s'
## integ. time (s): 1.86, 7.2
## total time (s): 5.58, 7.2
## counts @ peak (% of max): 94.4
## 
## # A tibble: 2,068 x 2
##    w.length        cps
##       <dbl>      <dbl>
##  1   187.82 -0.4619156
##  2   188.30  0.5081056
##  3   188.78 -0.4619134
##  4   189.26  0.3695313
##  5   189.73 23.9193085
##  6   190.21 20.8938227
##  7   190.69 62.2242777
##  8   191.17 72.0320647
##  9   191.64 70.5710754
## 10   192.12 73.5604916
## # ... with 2,058 more rows
## --- Member: filter ---
## Object: cps_spct [2,068 x 2]
## Wavelength range 187.82 to 1117.14 nm, step 0.41 to 0.48 nm 
## Label: Halogen 
## Measured on 2017-03-28 11:25:54 UTC 
## Data acquired with 'MayaPro2000' s.n. MAYP11278
## grating 'HC1', slit '010s'
## integ. time (s): 1.86, 7.2
## total time (s): 5.58, 7.2
## counts @ peak (% of max): 94.4
## 
## # A tibble: 2,068 x 2
##    w.length         cps
##       <dbl>       <dbl>
##  1   187.82  -0.1154786
##  2   188.30   0.4388183
##  3   188.78  -0.5312009
##  4   189.26   0.3002438
##  5   189.73  39.6018386
##  6   190.21  54.2091993
##  7   190.69  87.8667313
##  8   191.17 102.7238688
##  9   191.64  95.6973017
## 10   192.12 109.5630543
## # ... with 2,058 more rows
## 
## --- END ---
…
